{
  "type": "service_account",
  "project_id": "hw-users",
  "private_key_id": "d6330671096ba120cd266e8489fa0ac3e519ee51",
  "private_key": "-----BEGIN PRIVATE KEY-----\nMIIEvwIBADANBgkqhkiG9w0BAQEFAASCBKkwggSlAgEAAoIBAQDW5WWvRh5YV1rb\nLgeNhh+oy7Ytk+ynbP12jIKS11EeOzo63SBSJrcBmkd/ttGr1UpDsNPuGW1ckWBf\nOUJSL7iO51lidaMI3NK9HILsCJK+zyScDgpgZRUgicxNcthNWFZazcdt/czHqYSC\nuXdSiiBvysaYMvPASOFmNsGxvz5huY8B3azSOIElOWDa47i5urD84MuLvYrvnEHc\nmEg8Zjqf6WVZgKb58A98Pmp2YMIGcMepq8JeIawFFqqfASBAsXFQTMp2cUlkEomj\ngN3OaDrXcrzLh+OliBg3uJCmz5Z4EbToPVoQcyplcqx89JVRDZ5zbg2TlqkFFznc\nnGbAgWv7AgMBAAECggEACVvzwSwTq+xKfKgKfrmYhfJNV0jw8j/FU8bvnuWyyHOr\ny4JlnAVy2m2gbzfn9beCT3K+Ctft4TvRpPXU83MOD4OxI/WUoq10up/iNWPJFiIC\n23Iw4ICoTBD9NH9rzT6PEEE+o3eoVgp38a8ggfu2nn7rookzVYIMaGEPzDRGWWsL\ngY1RVHXVDjaB4zCxOfkAG+WrYoNi8R8n1BUCY5Zg7T09aFkOeneHoCIq6C1VCnvv\nIvzzMvfLCQG4oo39FavCemPTDFDmZ+MzFLI0FQ+1jNAv8Wc+gak6XR4f6g02PNrN\nptKFsGKP2VCorOCzErBs8eWl/iIkJSmQJ0esmwdPEQKBgQD4vdlghjTt43hjGPOU\nvCShoOtU5h4UMf46QqAG3OznBDkJSgk93V01Vr5ciyHlKiRcJ8Ru3rBKjx7MOFjD\nAtxIe+odjRsWhIg1wl7gCJI6bHKq3rjFc3bycFIqiPqUk/QlOnfJBG06aD6o7JN8\neb5j75cMiv8zGHJLJWvMZYsXiwKBgQDdKrcSFUne69SLa4jZpIsnxOBGvbrq/4Ay\ngv+uqpmiNfh2TolhDWfEi+UU2+HUaUnRbVZAN4RqJNDSLGcm8eOi0w2GfyN1i/1c\n4fgkE5iMjnYZU4g3V5icrobrKSWHKhMuen+T2HvZSeMrVUy/L56MG+A42u/6xJBn\nr78AP/QLUQKBgQCHk6sNEnl9BFQU53+0nQv2UOiUIM1aQpmIFdJ1iytRC5su9fyt\njJ+GOB6QAIHcD6k71a0apSQ/r1yhAUFYIZIBrBDCRKv0DQ7VBnmB8QoK8BtcCQN7\nE+FMaW5PotO58h7Lv9+UYGZMxI8Ksc/9s7nTbL7O5mAM8JEzZlUoVlyG2wKBgQCj\nDSbCkidPzZV44+KUchaVTzP5c08miQ8+Lg3J+8QgLqHqtqPZhUSHRouxARpQuv7N\nA0qfNU7N4i6BhHLX52TnWamTCpBdzMMRgxapojjJBw5SRZ8bDd1ZReH55O/h4kcZ\n8P21RdiorSxpeg2GtdixequnvuFFgzzi9FJgIMYOwQKBgQCMaaV8wj+3TFO8y0qx\nutmIHWBLc2+TF8Mc4NEu4eZb19I0jLzquuG3Hlpe/JhMb8q3Bs53hrzZs1lRnnDR\nVLkCZRg/3tVtdI+Pyjxv+p4C0LWXOTNh2HOA9G6hgGe1/7oKdNdtX4gaMiucQm/F\ndDLMzOg6wn/NkoSDiZwJZ8KKTA==\n-----END PRIVATE KEY-----\n",
  "client_email": "firebase-adminsdk-8cc8a@hw-users.iam.gserviceaccount.com",
  "client_id": "110100515124385594727",
  "auth_uri": "https://accounts.google.com/o/oauth2/auth",
  "token_uri": "https://oauth2.googleapis.com/token",
  "auth_provider_x509_cert_url": "https://www.googleapis.com/oauth2/v1/certs",
  "client_x509_cert_url": "https://www.googleapis.com/robot/v1/metadata/x509/firebase-adminsdk-8cc8a%40hw-users.iam.gserviceaccount.com"
}
